<?xml version="1.0" standalone="no"?>
<svg
  width="600"
  height="600"
  viewBox="0 0 600 600"
  xmlns="http://www.w3.org/2000/svg"
>
  <g transform="translate(300,300)">
    <path d="M100.6,-66.6C105.4,-49.8,67,-16.7,43,28.2C19.1,73,9.5,129.5,-25.1,144C-59.8,158.5,-119.5,131,-159.9,76.7C-200.3,22.3,-221.4,-58.8,-191.5,-90.1C-161.7,-121.3,-80.8,-102.7,-16.5,-93.2C47.9,-83.7,95.8,-83.3,100.6,-66.6Z" fill="#FFB4BC" />
  </g>
</svg>
  